EESchema Schematic File Version 4
EELAYER 30 0
EELAYER END
$Descr A4 11693 8268
encoding utf-8
Sheet 1 1
Title "paraduino"
Date "2021-01-20"
Rev "0.1"
Comp "Martin Petri"
Comment1 ""
Comment2 ""
Comment3 ""
Comment4 ""
$EndDescr
$Comp
L Interface_Expansion:TCA9548APWR U1
U 1 1 60097845
P 7600 3950
F 0 "U1" H 7600 5031 50  0000 C CNN
F 1 "TCA9548APWR" H 7600 4940 50  0000 C CNN
F 2 "Package_SO:TSSOP-24_4.4x7.8mm_P0.65mm" H 7600 2950 50  0001 C CNN
F 3 "http://www.ti.com/lit/ds/symlink/tca9548a.pdf" H 7650 4200 50  0001 C CNN
	1    7600 3950
	1    0    0    -1  
$EndComp
$Comp
L power:GND #PWR0101
U 1 1 600C0B37
P 3400 4550
F 0 "#PWR0101" H 3400 4300 50  0001 C CNN
F 1 "GND" H 3405 4377 50  0000 C CNN
F 2 "" H 3400 4550 50  0001 C CNN
F 3 "" H 3400 4550 50  0001 C CNN
	1    3400 4550
	0    1    1    0   
$EndComp
$Comp
L power:GND #PWR0102
U 1 1 600C27F2
P 7600 5150
F 0 "#PWR0102" H 7600 4900 50  0001 C CNN
F 1 "GND" H 7605 4977 50  0000 C CNN
F 2 "" H 7600 5150 50  0001 C CNN
F 3 "" H 7600 5150 50  0001 C CNN
	1    7600 5150
	1    0    0    -1  
$EndComp
Wire Wire Line
	7600 3050 7600 2700
$Comp
L Device:R R1
U 1 1 6010098D
P 5850 1200
F 0 "R1" H 5920 1246 50  0000 L CNN
F 1 "R4700" H 5920 1155 50  0000 L CNN
F 2 "Resistor_SMD:R_0402_1005Metric" V 5780 1200 50  0001 C CNN
F 3 "~" H 5850 1200 50  0001 C CNN
F 4 "C23162" H 5850 1200 50  0001 C CNN "LCSC"
	1    5850 1200
	1    0    0    -1  
$EndComp
$Comp
L Device:R R2
U 1 1 601079B8
P 6250 1200
F 0 "R2" H 6320 1246 50  0000 L CNN
F 1 "R4700" H 6320 1155 50  0000 L CNN
F 2 "Resistor_SMD:R_0402_1005Metric" V 6180 1200 50  0001 C CNN
F 3 "~" H 6250 1200 50  0001 C CNN
F 4 "C23162" H 6250 1200 50  0001 C CNN "LCSC"
	1    6250 1200
	1    0    0    -1  
$EndComp
$Comp
L power:GND #PWR0108
U 1 1 600C3580
P 10550 2250
F 0 "#PWR0108" H 10550 2000 50  0001 C CNN
F 1 "GND" H 10555 2077 50  0000 C CNN
F 2 "" H 10550 2250 50  0001 C CNN
F 3 "" H 10550 2250 50  0001 C CNN
	1    10550 2250
	0    -1   -1   0   
$EndComp
$Comp
L Connector:USB_A SPEED_BAR1
U 1 1 60093EA3
P 9800 5350
F 0 "SPEED_BAR1" H 9570 5247 50  0000 R CNN
F 1 "USB_A" H 9570 5338 50  0000 R CNN
F 2 "Connector_USB:USB_A_Molex_67643_Horizontal" H 9950 5300 50  0001 C CNN
F 3 " ~" H 9950 5300 50  0001 C CNN
	1    9800 5350
	-1   0    0    1   
$EndComp
$Comp
L Connector:USB_A LEFT_HANDLE1
U 1 1 6008F22F
P 9800 2750
F 0 "LEFT_HANDLE1" H 9570 2647 50  0000 R CNN
F 1 "USB_A" H 9570 2738 50  0000 R CNN
F 2 "Connector_USB:USB_A_Molex_67643_Horizontal" H 9950 2700 50  0001 C CNN
F 3 " ~" H 9950 2700 50  0001 C CNN
	1    9800 2750
	-1   0    0    1   
$EndComp
$Comp
L Connector:USB_A RIGHT_HANDLE1
U 1 1 60091359
P 9800 3600
F 0 "RIGHT_HANDLE1" H 9570 3497 50  0000 R CNN
F 1 "USB_A" H 9570 3588 50  0000 R CNN
F 2 "Connector_USB:USB_A_Molex_67643_Horizontal" H 9950 3550 50  0001 C CNN
F 3 " ~" H 9950 3550 50  0001 C CNN
	1    9800 3600
	-1   0    0    1   
$EndComp
$Comp
L Connector:USB_A WEIGHT_SHIFT1
U 1 1 60092B62
P 9800 4450
F 0 "WEIGHT_SHIFT1" H 9570 4347 50  0000 R CNN
F 1 "USB_A" H 9570 4438 50  0000 R CNN
F 2 "Connector_USB:USB_A_Molex_67643_Horizontal" H 9950 4400 50  0001 C CNN
F 3 " ~" H 9950 4400 50  0001 C CNN
	1    9800 4450
	-1   0    0    1   
$EndComp
$Comp
L Device:R R9
U 1 1 6010A22A
P 9050 1200
F 0 "R9" H 9120 1246 50  0000 L CNN
F 1 "R4700" H 9120 1155 50  0000 L CNN
F 2 "Resistor_SMD:R_0402_1005Metric" V 8980 1200 50  0001 C CNN
F 3 "~" H 9050 1200 50  0001 C CNN
F 4 "C23162" H 9050 1200 50  0001 C CNN "LCSC"
	1    9050 1200
	1    0    0    -1  
$EndComp
$Comp
L Device:R R3
U 1 1 601369F1
P 6650 1200
F 0 "R3" H 6720 1246 50  0000 L CNN
F 1 "R4700" H 6720 1155 50  0000 L CNN
F 2 "Resistor_SMD:R_0402_1005Metric" V 6580 1200 50  0001 C CNN
F 3 "~" H 6650 1200 50  0001 C CNN
F 4 "C23162" H 6650 1200 50  0001 C CNN "LCSC"
	1    6650 1200
	1    0    0    -1  
$EndComp
$Comp
L Device:R R4
U 1 1 60136A07
P 7050 1200
F 0 "R4" H 7120 1246 50  0000 L CNN
F 1 "R4700" H 7120 1155 50  0000 L CNN
F 2 "Resistor_SMD:R_0402_1005Metric" V 6980 1200 50  0001 C CNN
F 3 "~" H 7050 1200 50  0001 C CNN
F 4 "C23162" H 7050 1200 50  0001 C CNN "LCSC"
	1    7050 1200
	1    0    0    -1  
$EndComp
$Comp
L Device:R R5
U 1 1 601398C0
P 7450 1200
F 0 "R5" H 7520 1246 50  0000 L CNN
F 1 "R4700" H 7520 1155 50  0000 L CNN
F 2 "Resistor_SMD:R_0402_1005Metric" V 7380 1200 50  0001 C CNN
F 3 "~" H 7450 1200 50  0001 C CNN
F 4 "C23162" H 7450 1200 50  0001 C CNN "LCSC"
	1    7450 1200
	1    0    0    -1  
$EndComp
$Comp
L Device:R R6
U 1 1 601398D6
P 7850 1200
F 0 "R6" H 7920 1246 50  0000 L CNN
F 1 "R4700" H 7920 1155 50  0000 L CNN
F 2 "Resistor_SMD:R_0402_1005Metric" V 7780 1200 50  0001 C CNN
F 3 "~" H 7850 1200 50  0001 C CNN
F 4 "C23162" H 7850 1200 50  0001 C CNN "LCSC"
	1    7850 1200
	1    0    0    -1  
$EndComp
$Comp
L Device:R R7
U 1 1 6013CB98
P 8250 1200
F 0 "R7" H 8320 1246 50  0000 L CNN
F 1 "R4700" H 8320 1155 50  0000 L CNN
F 2 "Resistor_SMD:R_0402_1005Metric" V 8180 1200 50  0001 C CNN
F 3 "~" H 8250 1200 50  0001 C CNN
F 4 "C23162" H 8250 1200 50  0001 C CNN "LCSC"
	1    8250 1200
	1    0    0    -1  
$EndComp
$Comp
L Device:R R8
U 1 1 6013CBAE
P 8650 1200
F 0 "R8" H 8720 1246 50  0000 L CNN
F 1 "R4700" H 8720 1155 50  0000 L CNN
F 2 "Resistor_SMD:R_0402_1005Metric" V 8580 1200 50  0001 C CNN
F 3 "~" H 8650 1200 50  0001 C CNN
F 4 "C23162" H 8650 1200 50  0001 C CNN "LCSC"
	1    8650 1200
	1    0    0    -1  
$EndComp
Wire Wire Line
	9800 2350 9800 2250
Wire Wire Line
	9800 3200 9800 3100
Wire Wire Line
	9800 4050 9800 3950
Wire Wire Line
	9800 4950 9800 4800
Wire Wire Line
	7200 4250 7100 4250
Wire Wire Line
	7100 4250 7100 4350
Wire Wire Line
	7100 4350 7200 4350
Wire Wire Line
	7200 4450 7100 4450
Wire Wire Line
	7100 4450 7100 4350
Connection ~ 7100 4350
$Comp
L power:GND #PWR0114
U 1 1 6015EF7B
P 7100 4650
F 0 "#PWR0114" H 7100 4400 50  0001 C CNN
F 1 "GND" H 7105 4477 50  0000 C CNN
F 2 "" H 7100 4650 50  0001 C CNN
F 3 "" H 7100 4650 50  0001 C CNN
	1    7100 4650
	1    0    0    -1  
$EndComp
Wire Wire Line
	7100 4450 7100 4650
Connection ~ 7100 4450
Wire Wire Line
	3650 4550 3550 4550
$Comp
L Device:R R10
U 1 1 601701BF
P 9450 1200
F 0 "R10" H 9520 1246 50  0000 L CNN
F 1 "R4700" H 9520 1155 50  0000 L CNN
F 2 "Resistor_SMD:R_0402_1005Metric" V 9380 1200 50  0001 C CNN
F 3 "~" H 9450 1200 50  0001 C CNN
F 4 "C23162" H 9450 1200 50  0001 C CNN "LCSC"
	1    9450 1200
	1    0    0    -1  
$EndComp
Text GLabel 8000 3250 2    50   Input ~ 0
SC0
Text GLabel 8600 2100 2    50   Input ~ 0
SC0
Text GLabel 8600 2000 2    50   Input ~ 0
SD0
Text GLabel 8000 3350 2    50   Input ~ 0
SD0
Wire Wire Line
	5650 1450 5850 1450
Wire Wire Line
	9450 1450 9450 1350
Wire Wire Line
	8250 1350 8250 1450
Connection ~ 8250 1450
Wire Wire Line
	7850 1350 7850 1450
Connection ~ 7850 1450
Wire Wire Line
	7850 1450 8250 1450
Wire Wire Line
	7450 1350 7450 1450
Connection ~ 7450 1450
Wire Wire Line
	7450 1450 7850 1450
Wire Wire Line
	7050 1350 7050 1450
Connection ~ 7050 1450
Wire Wire Line
	7050 1450 7450 1450
Wire Wire Line
	6650 1350 6650 1450
Connection ~ 6650 1450
Wire Wire Line
	6650 1450 7050 1450
Wire Wire Line
	6250 1350 6250 1450
Connection ~ 6250 1450
Wire Wire Line
	6250 1450 6650 1450
Wire Wire Line
	5850 1350 5850 1450
Connection ~ 5850 1450
Wire Wire Line
	5850 1450 6250 1450
Wire Wire Line
	8250 1450 8650 1450
Wire Wire Line
	9050 1350 9050 1450
Connection ~ 9050 1450
Wire Wire Line
	9050 1450 9450 1450
Wire Wire Line
	8650 1350 8650 1450
Connection ~ 8650 1450
Wire Wire Line
	8650 1450 9050 1450
Wire Wire Line
	9800 2250 10350 2250
Wire Wire Line
	10350 4800 10350 3950
Wire Wire Line
	9800 4800 10350 4800
Connection ~ 10350 2250
Wire Wire Line
	10350 2250 10550 2250
Wire Wire Line
	9800 3100 10350 3100
Connection ~ 10350 3100
Wire Wire Line
	10350 3100 10350 2250
Wire Wire Line
	9800 3950 10350 3950
Connection ~ 10350 3950
Wire Wire Line
	10350 3950 10350 3100
Wire Wire Line
	9500 5550 9050 5550
Wire Wire Line
	9500 2950 9050 2950
Wire Wire Line
	9050 2950 9050 3800
Connection ~ 9050 5550
Wire Wire Line
	9050 5550 8850 5550
Wire Wire Line
	9050 3800 9500 3800
Connection ~ 9050 3800
Wire Wire Line
	9050 3800 9050 4650
Wire Wire Line
	9050 4650 9500 4650
Connection ~ 9050 4650
Wire Wire Line
	9050 4650 9050 5550
Text GLabel 8000 3450 2    50   Input ~ 0
SC1
Text GLabel 9500 3500 0    50   Input ~ 0
SC1
Text GLabel 9500 3600 0    50   Input ~ 0
SD1
Text GLabel 8000 3550 2    50   Input ~ 0
SD1
Text GLabel 3650 3450 0    50   Input ~ 0
SDA
Text GLabel 7200 3350 0    50   Input ~ 0
SDA
Text GLabel 9500 4350 0    50   Input ~ 0
SC2
Text GLabel 9500 4450 0    50   Input ~ 0
SD2
Text GLabel 9500 5250 0    50   Input ~ 0
SC3
Text GLabel 9500 5350 0    50   Input ~ 0
SD3
Text GLabel 8000 3650 2    50   Input ~ 0
SC2
Text GLabel 8000 3750 2    50   Input ~ 0
SD2
Text GLabel 8000 3850 2    50   Input ~ 0
SC3
Text GLabel 8000 3950 2    50   Input ~ 0
SD3
Text GLabel 3650 3550 0    50   Input ~ 0
SCL
Text GLabel 7200 3250 0    50   Input ~ 0
SCL
Text GLabel 6250 3150 2    50   Input ~ 0
TCA_RESET
Text GLabel 7200 3750 0    50   Input ~ 0
TCA_RESET
Text GLabel 5850 1050 1    50   Input ~ 0
SC0
Text GLabel 6250 1050 1    50   Input ~ 0
SD0
Text GLabel 6650 1050 1    50   Input ~ 0
SC1
Text GLabel 7050 1050 1    50   Input ~ 0
SD1
Text GLabel 7450 1050 1    50   Input ~ 0
SC2
Text GLabel 7850 1050 1    50   Input ~ 0
SD2
Text GLabel 8250 1050 1    50   Input ~ 0
SC3
Text GLabel 8650 1050 1    50   Input ~ 0
SD3
Text GLabel 9050 1050 1    50   Input ~ 0
SDA
Text GLabel 9450 1050 1    50   Input ~ 0
SCL
Wire Wire Line
	3650 4850 3400 4850
$Comp
L Connector:USB_B_Micro LEFT_HANDLE_SENSOR1
U 1 1 60368E04
P 2050 2200
F 0 "LEFT_HANDLE_SENSOR1" H 1820 2097 50  0000 R CNN
F 1 "USB_B_Micro" H 1820 2188 50  0000 R CNN
F 2 "Connector_USB:USB_Micro-B_Molex-105017-0001" H 2200 2150 50  0001 C CNN
F 3 "~" H 2200 2150 50  0001 C CNN
	1    2050 2200
	-1   0    0    1   
$EndComp
Wire Wire Line
	1750 2400 1400 2400
Wire Wire Line
	1400 2400 1400 2500
Wire Wire Line
	1400 2500 1100 2500
Wire Wire Line
	1750 2200 1100 2200
Wire Wire Line
	1750 2100 1400 2100
Wire Wire Line
	1400 2100 1400 2300
Wire Wire Line
	1400 2300 1100 2300
Wire Wire Line
	2050 1800 1250 1800
Wire Wire Line
	1250 1800 1250 2400
Wire Wire Line
	1250 2400 1100 2400
$Comp
L Connector:USB_B_Micro WEIGHT_SHIFT_SENSOR1
U 1 1 6036D192
P 2050 4350
F 0 "WEIGHT_SHIFT_SENSOR1" H 1820 4247 50  0000 R CNN
F 1 "USB_B_Micro" H 1820 4338 50  0000 R CNN
F 2 "Connector_USB:USB_Micro-B_Molex-105017-0001" H 2200 4300 50  0001 C CNN
F 3 "~" H 2200 4300 50  0001 C CNN
	1    2050 4350
	-1   0    0    1   
$EndComp
Wire Wire Line
	1750 4550 1400 4550
Wire Wire Line
	1400 4550 1400 4650
Wire Wire Line
	1400 4650 1100 4650
Wire Wire Line
	1750 4350 1100 4350
Wire Wire Line
	1750 4250 1400 4250
Wire Wire Line
	1400 4250 1400 4450
Wire Wire Line
	1400 4450 1100 4450
Wire Wire Line
	2050 3950 1250 3950
Wire Wire Line
	1250 3950 1250 4550
Wire Wire Line
	1250 4550 1100 4550
$Comp
L Connector:USB_B_Micro SPEED_BAR_SENSOR1
U 1 1 60371E5D
P 2100 5550
F 0 "SPEED_BAR_SENSOR1" H 1870 5447 50  0000 R CNN
F 1 "USB_B_Micro" H 1870 5538 50  0000 R CNN
F 2 "Connector_USB:USB_Micro-B_Molex-105017-0001" H 2250 5500 50  0001 C CNN
F 3 "~" H 2250 5500 50  0001 C CNN
	1    2100 5550
	-1   0    0    1   
$EndComp
$Comp
L Connector:Conn_01x08_Male J4
U 1 1 60371E99
P 950 5450
F 0 "J4" H 1058 5931 50  0000 C CNN
F 1 "Conn_01x08_Male" H 1058 5840 50  0000 C CNN
F 2 "Connector_PinHeader_2.54mm:PinHeader_1x08_P2.54mm_Vertical" H 950 5450 50  0001 C CNN
F 3 "~" H 950 5450 50  0001 C CNN
	1    950  5450
	1    0    0    -1  
$EndComp
Wire Wire Line
	1800 5750 1450 5750
Wire Wire Line
	1450 5750 1450 5850
Wire Wire Line
	1450 5850 1150 5850
Wire Wire Line
	1800 5550 1150 5550
Wire Wire Line
	1800 5450 1450 5450
Wire Wire Line
	1450 5450 1450 5650
Wire Wire Line
	1450 5650 1150 5650
Wire Wire Line
	2100 5150 1300 5150
Wire Wire Line
	1300 5150 1300 5750
Wire Wire Line
	1300 5750 1150 5750
Wire Wire Line
	7600 4950 7600 5150
$Comp
L Connector:USB_B_Micro RIGHT_HANDLE_SENSOR1
U 1 1 603883DA
P 2050 3300
F 0 "RIGHT_HANDLE_SENSOR1" H 1820 3197 50  0000 R CNN
F 1 "USB_B_Micro" H 1820 3288 50  0000 R CNN
F 2 "Connector_USB:USB_Micro-B_Molex-105017-0001" H 2200 3250 50  0001 C CNN
F 3 "~" H 2200 3250 50  0001 C CNN
	1    2050 3300
	-1   0    0    1   
$EndComp
Wire Wire Line
	1750 3500 1400 3500
Wire Wire Line
	1400 3500 1400 3600
Wire Wire Line
	1400 3600 1100 3600
Wire Wire Line
	1750 3300 1100 3300
Wire Wire Line
	1750 3200 1400 3200
Wire Wire Line
	1400 3200 1400 3400
Wire Wire Line
	1400 3400 1100 3400
Wire Wire Line
	2050 2900 1250 2900
Wire Wire Line
	1250 2900 1250 3500
Wire Wire Line
	1250 3500 1100 3500
$Comp
L Connector:Conn_01x08_Male J3
U 1 1 6039F9EE
P 900 4250
F 0 "J3" H 1008 4731 50  0000 C CNN
F 1 "Conn_01x08_Male" H 1008 4640 50  0000 C CNN
F 2 "Connector_PinHeader_2.54mm:PinHeader_1x08_P2.54mm_Vertical" H 900 4250 50  0001 C CNN
F 3 "~" H 900 4250 50  0001 C CNN
	1    900  4250
	1    0    0    -1  
$EndComp
$Comp
L Connector:Conn_01x08_Male J2
U 1 1 603A44B0
P 900 3200
F 0 "J2" H 1008 3681 50  0000 C CNN
F 1 "Conn_01x08_Male" H 1008 3590 50  0000 C CNN
F 2 "Connector_PinHeader_2.54mm:PinHeader_1x08_P2.54mm_Vertical" H 900 3200 50  0001 C CNN
F 3 "~" H 900 3200 50  0001 C CNN
	1    900  3200
	1    0    0    -1  
$EndComp
$Comp
L Connector:Conn_01x08_Male J1
U 1 1 603A94A9
P 900 2100
F 0 "J1" H 1008 2581 50  0000 C CNN
F 1 "Conn_01x08_Male" H 1008 2490 50  0000 C CNN
F 2 "Connector_PinHeader_2.54mm:PinHeader_1x08_P2.54mm_Vertical" H 900 2100 50  0001 C CNN
F 3 "~" H 900 2100 50  0001 C CNN
	1    900  2100
	1    0    0    -1  
$EndComp
$Comp
L arduino:Arduino_Micro_Socket XA1
U 1 1 600A8D3F
P 4950 4050
F 0 "XA1" H 4950 5287 60  0000 C CNN
F 1 "Arduino_Micro_Socket" H 4950 5181 60  0000 C CNN
F 2 "Arduino:Arduino_Micro_Socket" H 6750 7800 60  0001 C CNN
F 3 "https://store.arduino.cc/arduino-micro" H 6750 7800 60  0001 C CNN
	1    4950 4050
	1    0    0    -1  
$EndComp
Wire Wire Line
	3650 4650 3550 4650
Wire Wire Line
	3550 4650 3550 4550
Connection ~ 3550 4550
Wire Wire Line
	3550 4550 3400 4550
$Comp
L power:VDD #PWR0103
U 1 1 600B70C4
P 7600 2700
F 0 "#PWR0103" H 7600 2550 50  0001 C CNN
F 1 "VDD" H 7615 2873 50  0000 C CNN
F 2 "" H 7600 2700 50  0001 C CNN
F 3 "" H 7600 2700 50  0001 C CNN
	1    7600 2700
	1    0    0    -1  
$EndComp
$Comp
L power:VDD #PWR0104
U 1 1 600B7D53
P 8850 5550
F 0 "#PWR0104" H 8850 5400 50  0001 C CNN
F 1 "VDD" H 8865 5723 50  0000 C CNN
F 2 "" H 8850 5550 50  0001 C CNN
F 3 "" H 8850 5550 50  0001 C CNN
	1    8850 5550
	0    -1   -1   0   
$EndComp
$Comp
L power:VDD #PWR0105
U 1 1 600BAF6D
P 3400 4850
F 0 "#PWR0105" H 3400 4700 50  0001 C CNN
F 1 "VDD" H 3415 5023 50  0000 C CNN
F 2 "" H 3400 4850 50  0001 C CNN
F 3 "" H 3400 4850 50  0001 C CNN
	1    3400 4850
	0    -1   -1   0   
$EndComp
$Comp
L power:VDD #PWR0106
U 1 1 600BE6DC
P 5650 1450
F 0 "#PWR0106" H 5650 1300 50  0001 C CNN
F 1 "VDD" H 5665 1623 50  0000 C CNN
F 2 "" H 5650 1450 50  0001 C CNN
F 3 "" H 5650 1450 50  0001 C CNN
	1    5650 1450
	0    -1   -1   0   
$EndComp
$Comp
L Connector:Conn_01x04_Male J5
U 1 1 600B1EDF
P 8400 2000
F 0 "J5" H 8508 2281 50  0000 C CNN
F 1 "Conn_01x04_Male" H 8508 2190 50  0000 C CNN
F 2 "Connector_PinHeader_2.54mm:PinHeader_1x04_P2.54mm_Vertical" H 8400 2000 50  0001 C CNN
F 3 "~" H 8400 2000 50  0001 C CNN
	1    8400 2000
	1    0    0    -1  
$EndComp
$Comp
L power:GND #PWR0107
U 1 1 600B6E2D
P 8900 2200
F 0 "#PWR0107" H 8900 1950 50  0001 C CNN
F 1 "GND" H 8905 2027 50  0000 C CNN
F 2 "" H 8900 2200 50  0001 C CNN
F 3 "" H 8900 2200 50  0001 C CNN
	1    8900 2200
	0    -1   -1   0   
$EndComp
Wire Wire Line
	8600 2200 8900 2200
$Comp
L power:VDD #PWR0109
U 1 1 600BA81B
P 8900 1900
F 0 "#PWR0109" H 8900 1750 50  0001 C CNN
F 1 "VDD" H 8915 2073 50  0000 C CNN
F 2 "" H 8900 1900 50  0001 C CNN
F 3 "" H 8900 1900 50  0001 C CNN
	1    8900 1900
	0    1    1    0   
$EndComp
Wire Wire Line
	8600 1900 8900 1900
$EndSCHEMATC
